<?xml version="1.0" encoding="UTF-8"?>
<testng-results skipped="0" failed="0" total="2" passed="2">
  <reporter-output>
  </reporter-output>
  <suite name="Command line suite" duration-ms="24" started-at="2018-04-04T07:59:44Z" finished-at="2018-04-04T07:59:44Z">
    <groups>
    </groups>
    <test name="Command line test" duration-ms="24" started-at="2018-04-04T07:59:44Z" finished-at="2018-04-04T07:59:44Z">
      <class name="CTest">
        <test-method status="PASS" signature="a()[pri:0, instance:CTest@38082d64]" name="a" duration-ms="10" started-at="2018-04-04T13:29:44Z" finished-at="2018-04-04T13:29:44Z">
          <reporter-output>
          </reporter-output>
        </test-method> <!-- a -->
      </class> <!-- CTest -->
      <class name="Test3">
        <test-method status="PASS" signature="a()[pri:0, instance:Test3@6cd8737]" name="a" duration-ms="0" started-at="2018-04-04T13:29:44Z" finished-at="2018-04-04T13:29:44Z">
          <reporter-output>
          </reporter-output>
        </test-method> <!-- a -->
      </class> <!-- Test3 -->
    </test> <!-- Command line test -->
  </suite> <!-- Command line suite -->
</testng-results>
